{
  "name": "{{PROJECT_NAME}}",
  "target_environment": "DEV",
  "service_mesh": {
    "{{SERVICE_MESH_NAME}}": {
      "components": {
        "{{INFERENCE_SVC_COMPONENT_NAME_1}}": [{
          "version_name": "v1",
          "build_version": 1,
          "ports": [{"name": "http", "port": 5000}],
          "persistence": {
              "mount_path": "/data"
          },
          "environment_parameters": [{
              "name": "SOME_PARAM",
              "value": "some_value"
          }],
          "replicas": 2,
          "args": ["--path", "/data"],
          "command": ["python", "run.py"]
        }],
        "{{SVC_COMPONENT_NAME_1}}": [{
          "version_name": "v2",
          "replicas": 1,
          "build_version": 1,
          "ports": [{"name": "http", "port": 5000}]
        }]
      },
      "strategy": {
        "weights": {
          "v1": 70,
          "v2": 30
        },
        "rule": {
          "header": [
            {
              "match_type": "exact",
              "match_string": "v2.user",
              "header_value": "end-user",
              "destination": "v2"
            }
          ],
          "default_destination": "v1"
        }
      }
    }
  }
}
